0:0:0:0:0:0:0:1 - - [05/Jan/2024:00:00:08 +0530] "POST /StuWebPage/LoginServlet HTTP/1.1" 200 641
0:0:0:0:0:0:0:1 - - [05/Jan/2024:00:00:20 +0530] "POST /StuWebPage/LoginServlet HTTP/1.1" 200 103
127.0.0.1 - - [05/Jan/2024:00:10:59 +0530] "GET / HTTP/1.1" 404 751
0:0:0:0:0:0:0:1 - - [05/Jan/2024:00:11:00 +0530] "GET /StuWebPage/Login.html HTTP/1.1" 304 -
0:0:0:0:0:0:0:1 - - [05/Jan/2024:00:11:08 +0530] "POST /StuWebPage/LoginServlet HTTP/1.1" 200 639
0:0:0:0:0:0:0:1 - - [05/Jan/2024:00:11:22 +0530] "POST /StuWebPage/LoginServlet HTTP/1.1" 200 262
0:0:0:0:0:0:0:1 - - [05/Jan/2024:00:11:24 +0530] "GET /StuWebPage/LogoutServlet HTTP/1.1" 404 776
127.0.0.1 - - [05/Jan/2024:00:12:25 +0530] "GET / HTTP/1.1" 404 751
0:0:0:0:0:0:0:1 - - [05/Jan/2024:00:12:32 +0530] "POST /StuWebPage/LoginServlet HTTP/1.1" 200 639
0:0:0:0:0:0:0:1 - - [05/Jan/2024:00:12:43 +0530] "POST /StuWebPage/LoginServlet HTTP/1.1" 200 262
0:0:0:0:0:0:0:1 - - [05/Jan/2024:00:12:45 +0530] "GET /StuWebPage/LogoutServlet HTTP/1.1" 200 523
0:0:0:0:0:0:0:1 - - [05/Jan/2024:00:12:56 +0530] "POST /StuWebPage/LoginServlet HTTP/1.1" 200 262
