127.0.0.1 - - [07/Jan/2024:23:04:11 +0530] "GET / HTTP/1.1" 404 751
0:0:0:0:0:0:0:1 - - [07/Jan/2024:23:04:12 +0530] "GET /StuWebPage/Login.html HTTP/1.1" 200 523
0:0:0:0:0:0:0:1 - - [07/Jan/2024:23:04:32 +0530] "POST /StuWebPage/LoginServlet HTTP/1.1" 500 8
0:0:0:0:0:0:0:1 - - [07/Jan/2024:23:06:22 +0530] "POST /StuWebPage/LoginServlet HTTP/1.1" 200 241
0:0:0:0:0:0:0:1 - - [07/Jan/2024:23:06:24 +0530] "GET /StuWebPage/Logprintwriter HTTP/1.1" 404 780
127.0.0.1 - - [07/Jan/2024:23:07:23 +0530] "GET / HTTP/1.1" 404 751
0:0:0:0:0:0:0:1 - - [07/Jan/2024:23:07:36 +0530] "POST /StuWebPage/LoginServlet HTTP/1.1" 200 232
0:0:0:0:0:0:0:1 - - [07/Jan/2024:23:07:38 +0530] "GET /StuWebPage/LogoutServlet HTTP/1.1" 200 523
0:0:0:0:0:0:0:1 - - [07/Jan/2024:23:07:49 +0530] "POST /StuWebPage/LoginServlet HTTP/1.1" 200 262
0:0:0:0:0:0:0:1 - - [07/Jan/2024:23:10:56 +0530] "GET /StuWebPage/Login.html HTTP/1.1" 200 527
0:0:0:0:0:0:0:1 - - [07/Jan/2024:23:10:59 +0530] "GET /StuWebPage/Register.html HTTP/1.1" 200 990
127.0.0.1 - - [07/Jan/2024:23:25:17 +0530] "GET / HTTP/1.1" 404 751
0:0:0:0:0:0:0:1 - - [07/Jan/2024:23:25:17 +0530] "GET /StuWebPage/Login.html HTTP/1.1" 304 -
0:0:0:0:0:0:0:1 - - [07/Jan/2024:23:25:20 +0530] "GET /StuWebPage/Register.html HTTP/1.1" 200 990
0:0:0:0:0:0:0:1 - - [07/Jan/2024:23:25:41 +0530] "POST /StuWebPage/Register HTTP/1.1" 404 774
0:0:0:0:0:0:0:1 - - [07/Jan/2024:23:27:00 +0530] "POST /StuWebPage/Register HTTP/1.1" 404 774
0:0:0:0:0:0:0:1 - - [07/Jan/2024:23:28:26 +0530] "POST /StuWebPage/Register HTTP/1.1" 404 774
0:0:0:0:0:0:0:1 - - [07/Jan/2024:23:29:32 +0530] "GET /StuWebPage/Register.html HTTP/1.1" 200 997
0:0:0:0:0:0:0:1 - - [07/Jan/2024:23:29:44 +0530] "GET /StuWebPage/Login.html HTTP/1.1" 304 -
0:0:0:0:0:0:0:1 - - [07/Jan/2024:23:29:47 +0530] "GET /StuWebPage/Register.html HTTP/1.1" 304 -
0:0:0:0:0:0:0:1 - - [07/Jan/2024:23:30:35 +0530] "POST /StuWebPage/RegisterServlet HTTP/1.1" 500 1308
127.0.0.1 - - [07/Jan/2024:23:33:44 +0530] "GET / HTTP/1.1" 404 751
0:0:0:0:0:0:0:1 - - [07/Jan/2024:23:33:45 +0530] "GET /StuWebPage/Login.html HTTP/1.1" 304 -
0:0:0:0:0:0:0:1 - - [07/Jan/2024:23:33:47 +0530] "GET /StuWebPage/Register.html HTTP/1.1" 304 -
0:0:0:0:0:0:0:1 - - [07/Jan/2024:23:34:06 +0530] "POST /StuWebPage/RegisterServlet HTTP/1.1" 500 1265
127.0.0.1 - - [07/Jan/2024:23:41:05 +0530] "GET / HTTP/1.1" 404 751
0:0:0:0:0:0:0:1 - - [07/Jan/2024:23:41:05 +0530] "GET /StuWebPage/Login.html HTTP/1.1" 304 -
0:0:0:0:0:0:0:1 - - [07/Jan/2024:23:41:07 +0530] "GET /StuWebPage/Register.html HTTP/1.1" 304 -
0:0:0:0:0:0:0:1 - - [07/Jan/2024:23:41:41 +0530] "POST /StuWebPage/RegisterServlet HTTP/1.1" 500 1265
127.0.0.1 - - [07/Jan/2024:23:45:00 +0530] "GET / HTTP/1.1" 404 751
0:0:0:0:0:0:0:1 - - [07/Jan/2024:23:45:01 +0530] "GET /StuWebPage/Login.html HTTP/1.1" 304 -
0:0:0:0:0:0:0:1 - - [07/Jan/2024:23:45:03 +0530] "GET /StuWebPage/Login.html HTTP/1.1" 304 -
0:0:0:0:0:0:0:1 - - [07/Jan/2024:23:45:05 +0530] "GET /StuWebPage/Register.html HTTP/1.1" 304 -
0:0:0:0:0:0:0:1 - - [07/Jan/2024:23:45:27 +0530] "POST /StuWebPage/RegisterServlet HTTP/1.1" 500 1265
0:0:0:0:0:0:0:1 - - [07/Jan/2024:23:46:52 +0530] "GET /StuWebPage/Register.html HTTP/1.1" 200 997
0:0:0:0:0:0:0:1 - - [07/Jan/2024:23:47:13 +0530] "POST /StuWebPage/RegisterServlet HTTP/1.1" 200 1123
127.0.0.1 - - [07/Jan/2024:23:49:17 +0530] "GET / HTTP/1.1" 404 751
0:0:0:0:0:0:0:1 - - [07/Jan/2024:23:49:18 +0530] "GET /StuWebPage/Login.html HTTP/1.1" 304 -
0:0:0:0:0:0:0:1 - - [07/Jan/2024:23:49:20 +0530] "GET /StuWebPage/Register.html HTTP/1.1" 304 -
0:0:0:0:0:0:0:1 - - [07/Jan/2024:23:49:41 +0530] "POST /StuWebPage/RegisterServlet HTTP/1.1" 200 1123
127.0.0.1 - - [07/Jan/2024:23:50:45 +0530] "GET / HTTP/1.1" 404 751
0:0:0:0:0:0:0:1 - - [07/Jan/2024:23:50:48 +0530] "GET /StuWebPage/Register.html HTTP/1.1" 304 -
0:0:0:0:0:0:0:1 - - [07/Jan/2024:23:51:18 +0530] "POST /StuWebPage/RegisterServlet HTTP/1.1" 200 658
0:0:0:0:0:0:0:1 - - [07/Jan/2024:23:51:29 +0530] "POST /StuWebPage/LoginServlet HTTP/1.1" 200 231
0:0:0:0:0:0:0:1 - - [07/Jan/2024:23:51:45 +0530] "GET /StuWebPage/LogoutServlet HTTP/1.1" 200 527
0:0:0:0:0:0:0:1 - - [07/Jan/2024:23:51:57 +0530] "GET /StuWebPage/Login.html HTTP/1.1" 304 -
