127.0.0.1 - - [02/Apr/2024:08:07:34 +0530] "GET / HTTP/1.1" 404 751
0:0:0:0:0:0:0:1 - - [02/Apr/2024:08:10:02 +0530] "GET /EmpWebApp/Login.html HTTP/1.1" 404 775
0:0:0:0:0:0:0:1 - - [02/Apr/2024:08:10:02 +0530] "GET /favicon.ico HTTP/1.1" 404 762
0:0:0:0:0:0:0:1 - - [02/Apr/2024:08:10:11 +0530] "GET / HTTP/1.1" 404 751
127.0.0.1 - - [02/Apr/2024:08:17:52 +0530] "GET / HTTP/1.1" 404 751
0:0:0:0:0:0:0:1 - - [02/Apr/2024:08:17:53 +0530] "GET /Demo/index.html HTTP/1.1" 200 113
0:0:0:0:0:0:0:1 - - [02/Apr/2024:08:18:18 +0530] "GET /Demo/index.html HTTP/1.1" 200 113
0:0:0:0:0:0:0:1 - - [02/Apr/2024:08:20:01 +0530] "GET /Demo/index.html HTTP/1.1" 304 -
0:0:0:0:0:0:0:1 - - [02/Apr/2024:08:22:50 +0530] "GET /Demo/index.html HTTP/1.1" 200 279
0:0:0:0:0:0:0:1 - - [02/Apr/2024:08:23:13 +0530] "GET /Demo/index.html HTTP/1.1" 200 282
0:0:0:0:0:0:0:1 - - [02/Apr/2024:08:23:23 +0530] "GET /Demo/add?num1=1&num2=1 HTTP/1.1" 404 763
0:0:0:0:0:0:0:1 - - [02/Apr/2024:08:39:14 +0530] "GET /Demo/WEB-INF/web.xml HTTP/1.1" 404 682
0:0:0:0:0:0:0:1 - - [02/Apr/2024:08:40:27 +0530] "GET /Demo/WEB-INF/web.xml HTTP/1.1" 404 682
127.0.0.1 - - [02/Apr/2024:08:43:44 +0530] "GET / HTTP/1.1" 404 751
0:0:0:0:0:0:0:1 - - [02/Apr/2024:08:43:44 +0530] "GET /Demo/add HTTP/1.1" 500 1145
0:0:0:0:0:0:0:1 - - [02/Apr/2024:08:46:55 +0530] "GET / HTTP/1.1" 404 751
0:0:0:0:0:0:0:1 - - [02/Apr/2024:08:47:08 +0530] "GET / HTTP/1.1" 404 751
0:0:0:0:0:0:0:1 - - [02/Apr/2024:08:48:35 +0530] "GET /Demo/index.html HTTP/1.1" 304 -
0:0:0:0:0:0:0:1 - - [02/Apr/2024:08:48:42 +0530] "GET /Demo/add?num1=10&num2=1 HTTP/1.1" 200 14
127.0.0.1 - - [02/Apr/2024:12:18:23 +0530] "GET / HTTP/1.1" 404 751
0:0:0:0:0:0:0:1 - - [02/Apr/2024:12:18:24 +0530] "GET /Demo/index.html HTTP/1.1" 200 305
0:0:0:0:0:0:0:1 - - [02/Apr/2024:12:18:24 +0530] "GET /favicon.ico HTTP/1.1" 404 762
0:0:0:0:0:0:0:1 - - [02/Apr/2024:12:18:30 +0530] "GET /Demo/add?num1=10&num2=1 HTTP/1.1" 200 14
0:0:0:0:0:0:0:1 - - [02/Apr/2024:12:21:20 +0530] "GET /Demo/index.html HTTP/1.1" 200 298
0:0:0:0:0:0:0:1 - - [02/Apr/2024:12:21:27 +0530] "POST /Demo/add HTTP/1.1" 200 14
127.0.0.1 - - [02/Apr/2024:12:47:06 +0530] "GET / HTTP/1.1" 404 751
0:0:0:0:0:0:0:1 - - [02/Apr/2024:12:47:06 +0530] "GET /Demo/add HTTP/1.1" 500 1145
0:0:0:0:0:0:0:1 - - [02/Apr/2024:12:48:02 +0530] "GET /Demo/index.html HTTP/1.1" 304 -
0:0:0:0:0:0:0:1 - - [02/Apr/2024:12:48:17 +0530] "POST /Demo/add HTTP/1.1" 500 1633
127.0.0.1 - - [02/Apr/2024:12:48:49 +0530] "GET / HTTP/1.1" 404 751
0:0:0:0:0:0:0:1 - - [02/Apr/2024:12:48:58 +0530] "POST /Demo/add HTTP/1.1" 405 752
0:0:0:0:0:0:0:1 - - [02/Apr/2024:12:49:17 +0530] "POST /Demo/add HTTP/1.1" 405 752
0:0:0:0:0:0:0:1 - - [02/Apr/2024:12:49:48 +0530] "POST /Demo/add HTTP/1.1" 405 752
0:0:0:0:0:0:0:1 - - [02/Apr/2024:12:50:36 +0530] "POST /Demo/add HTTP/1.1" 405 752
0:0:0:0:0:0:0:1 - - [02/Apr/2024:12:50:47 +0530] "GET /Demo/index.html HTTP/1.1" 200 297
0:0:0:0:0:0:0:1 - - [02/Apr/2024:12:50:54 +0530] "GET /Demo/add?num1=10&num2=3 HTTP/1.1" 200 13
127.0.0.1 - - [02/Apr/2024:12:54:34 +0530] "GET / HTTP/1.1" 404 751
0:0:0:0:0:0:0:1 - - [02/Apr/2024:12:54:34 +0530] "GET /Demo/index.html HTTP/1.1" 304 -
0:0:0:0:0:0:0:1 - - [02/Apr/2024:12:54:43 +0530] "GET /Demo/add?num1=10&num2=10 HTTP/1.1" 500 1340
0:0:0:0:0:0:0:1 - - [02/Apr/2024:12:55:46 +0530] "GET /Demo/index.html HTTP/1.1" 304 -
0:0:0:0:0:0:0:1 - - [02/Apr/2024:12:55:53 +0530] "GET /Demo/add?num1=10&num2=10 HTTP/1.1" 200 15
127.0.0.1 - - [02/Apr/2024:13:29:23 +0530] "GET / HTTP/1.1" 404 751
0:0:0:0:0:0:0:1 - - [02/Apr/2024:13:29:23 +0530] "GET /Demo/index.html HTTP/1.1" 200 305
0:0:0:0:0:0:0:1 - - [02/Apr/2024:13:29:29 +0530] "GET /Demo/add?num1=10&num2=10 HTTP/1.1" 302 -
0:0:0:0:0:0:0:1 - - [02/Apr/2024:13:29:29 +0530] "GET /Demo/sq HTTP/1.1" 500 1212
0:0:0:0:0:0:0:1 - - [02/Apr/2024:13:29:55 +0530] "GET /Demo/sq?k=10 HTTP/1.1" 200 15
127.0.0.1 - - [02/Apr/2024:13:31:12 +0530] "GET / HTTP/1.1" 404 751
0:0:0:0:0:0:0:1 - - [02/Apr/2024:13:31:13 +0530] "GET /Demo/index.html HTTP/1.1" 304 -
0:0:0:0:0:0:0:1 - - [02/Apr/2024:13:31:23 +0530] "GET /Demo/add?num1=5&num2=5 HTTP/1.1" 302 -
0:0:0:0:0:0:0:1 - - [02/Apr/2024:13:31:23 +0530] "GET /Demo/sq?k=10 HTTP/1.1" 200 15
0:0:0:0:0:0:0:1 - - [02/Apr/2024:13:50:20 +0530] "GET /Demo/index.html HTTP/1.1" 200 552
0:0:0:0:0:0:0:1 - - [02/Apr/2024:13:52:53 +0530] "GET /Demo/index.html HTTP/1.1" 200 552
127.0.0.1 - - [02/Apr/2024:15:08:28 +0530] "GET / HTTP/1.1" 404 751
0:0:0:0:0:0:0:1 - - [02/Apr/2024:15:08:29 +0530] "GET /Demo/index.html HTTP/1.1" 200 561
0:0:0:0:0:0:0:1 - - [02/Apr/2024:15:09:07 +0530] "GET /Demo/index.html HTTP/1.1" 200 589
0:0:0:0:0:0:0:1 - - [02/Apr/2024:15:09:22 +0530] "POST /Demo/SaveServlet HTTP/1.1" 405 752
0:0:0:0:0:0:0:1 - - [02/Apr/2024:15:09:58 +0530] "GET /Demo/index.html HTTP/1.1" 200 588
0:0:0:0:0:0:0:1 - - [02/Apr/2024:15:10:12 +0530] "GET /Demo/SaveServlet? HTTP/1.1" 500 1141
127.0.0.1 - - [02/Apr/2024:15:15:34 +0530] "GET / HTTP/1.1" 404 751
0:0:0:0:0:0:0:1 - - [02/Apr/2024:15:15:34 +0530] "GET /Demo/index.html HTTP/1.1" 304 -
0:0:0:0:0:0:0:1 - - [02/Apr/2024:15:15:49 +0530] "GET /Demo/SaveServlet? HTTP/1.1" 500 1141
127.0.0.1 - - [02/Apr/2024:15:18:17 +0530] "GET / HTTP/1.1" 404 751
0:0:0:0:0:0:0:1 - - [02/Apr/2024:15:18:18 +0530] "GET /Demo/index.html HTTP/1.1" 304 -
0:0:0:0:0:0:0:1 - - [02/Apr/2024:15:18:28 +0530] "GET /Demo/SaveServlet? HTTP/1.1" 500 1141
127.0.0.1 - - [02/Apr/2024:15:19:17 +0530] "GET / HTTP/1.1" 404 751
0:0:0:0:0:0:0:1 - - [02/Apr/2024:15:19:18 +0530] "GET /Demo/index.html HTTP/1.1" 304 -
0:0:0:0:0:0:0:1 - - [02/Apr/2024:15:19:53 +0530] "GET /Demo/SaveServlet? HTTP/1.1" 200 -
127.0.0.1 - - [02/Apr/2024:15:25:50 +0530] "GET / HTTP/1.1" 404 751
0:0:0:0:0:0:0:1 - - [02/Apr/2024:15:25:51 +0530] "GET /Demo/index.html HTTP/1.1" 304 -
0:0:0:0:0:0:0:1 - - [02/Apr/2024:15:26:05 +0530] "GET /Demo/SaveServlet? HTTP/1.1" 200 -
0:0:0:0:0:0:0:1 - - [02/Apr/2024:15:28:50 +0530] "GET /Demo/index.html HTTP/1.1" 200 639
0:0:0:0:0:0:0:1 - - [02/Apr/2024:15:29:02 +0530] "GET /Demo/SaveServlet?name=yaswanth+chanumolu&email=chanumoluyaswanth24%40gmail.com&age=12&phoneNumber=8465916100 HTTP/1.1" 200 -
127.0.0.1 - - [02/Apr/2024:15:30:37 +0530] "GET / HTTP/1.1" 404 751
0:0:0:0:0:0:0:1 - - [02/Apr/2024:15:30:37 +0530] "GET /Demo/index.html HTTP/1.1" 200 640
0:0:0:0:0:0:0:1 - - [02/Apr/2024:15:30:47 +0530] "POST /Demo/SaveServlet HTTP/1.1" 200 -
127.0.0.1 - - [02/Apr/2024:15:43:04 +0530] "GET / HTTP/1.1" 404 751
0:0:0:0:0:0:0:1 - - [02/Apr/2024:15:43:05 +0530] "GET /Demo/index.html HTTP/1.1" 200 745
0:0:0:0:0:0:0:1 - - [02/Apr/2024:15:44:21 +0530] "POST /Demo/SaveServlet HTTP/1.1" 200 -
0:0:0:0:0:0:0:1 - - [02/Apr/2024:15:46:27 +0530] "POST /Demo/SaveServlet HTTP/1.1" 200 -
127.0.0.1 - - [02/Apr/2024:15:55:03 +0530] "GET / HTTP/1.1" 404 751
0:0:0:0:0:0:0:1 - - [02/Apr/2024:15:55:04 +0530] "GET /Demo/login.html HTTP/1.1" 200 500
0:0:0:0:0:0:0:1 - - [02/Apr/2024:15:55:07 +0530] "GET /Demo/SaveServlet HTTP/1.1" 405 751
0:0:0:0:0:0:0:1 - - [02/Apr/2024:15:55:32 +0530] "GET /Demo/login.html HTTP/1.1" 200 499
0:0:0:0:0:0:0:1 - - [02/Apr/2024:15:55:34 +0530] "GET /Demo/index.html HTTP/1.1" 304 -
127.0.0.1 - - [02/Apr/2024:17:05:37 +0530] "GET / HTTP/1.1" 404 751
0:0:0:0:0:0:0:1 - - [02/Apr/2024:17:05:38 +0530] "GET /Demo/login.html HTTP/1.1" 304 -
0:0:0:0:0:0:0:1 - - [02/Apr/2024:17:05:43 +0530] "GET /Demo/index.html HTTP/1.1" 304 -
0:0:0:0:0:0:0:1 - - [02/Apr/2024:17:06:09 +0530] "POST /Demo/SaveServlet HTTP/1.1" 200 499
0:0:0:0:0:0:0:1 - - [02/Apr/2024:17:08:54 +0530] "POST /Demo/SaveServlet HTTP/1.1" 200 518
0:0:0:0:0:0:0:1 - - [02/Apr/2024:17:09:04 +0530] "POST /Demo/LoginServlet HTTP/1.1" 404 772
0:0:0:0:0:0:0:1 - - [02/Apr/2024:17:10:14 +0530] "POST /Demo/SaveServlet HTTP/1.1" 412 675
0:0:0:0:0:0:0:1 - - [02/Apr/2024:17:10:19 +0530] "POST /Demo/SaveServlet HTTP/1.1" 200 518
0:0:0:0:0:0:0:1 - - [02/Apr/2024:17:10:26 +0530] "POST /Demo/LoginServlet HTTP/1.1" 404 772
0:0:0:0:0:0:0:1 - - [02/Apr/2024:17:13:18 +0530] "GET /Demo/login.html HTTP/1.1" 200 518
0:0:0:0:0:0:0:1 - - [02/Apr/2024:17:18:08 +0530] "POST /Demo/LoginServlet HTTP/1.1" 404 772
0:0:0:0:0:0:0:1 - - [02/Apr/2024:17:21:27 +0530] "POST /Demo/LoginServlet HTTP/1.1" 404 772
0:0:0:0:0:0:0:1 - - [02/Apr/2024:17:22:58 +0530] "POST /Demo/LoginServlet HTTP/1.1" 404 772
127.0.0.1 - - [02/Apr/2024:17:26:14 +0530] "GET / HTTP/1.1" 404 751
0:0:0:0:0:0:0:1 - - [02/Apr/2024:17:26:15 +0530] "GET /Demo/index.html HTTP/1.1" 304 -
0:0:0:0:0:0:0:1 - - [02/Apr/2024:17:26:29 +0530] "GET /Demo/login.html HTTP/1.1" 200 518
0:0:0:0:0:0:0:1 - - [02/Apr/2024:17:26:40 +0530] "POST /Demo/LoginServlet HTTP/1.1" 200 19
0:0:0:0:0:0:0:1 - - [02/Apr/2024:17:26:57 +0530] "POST /Demo/LoginServlet HTTP/1.1" 200 8
0:0:0:0:0:0:0:1 - - [02/Apr/2024:17:27:03 +0530] "POST /Demo/LoginServlet HTTP/1.1" 200 20
0:0:0:0:0:0:0:1 - - [02/Apr/2024:17:51:56 +0530] "POST /Demo/LoginServlet HTTP/1.1" 200 20
0:0:0:0:0:0:0:1 - - [02/Apr/2024:17:54:50 +0530] "GET /Demo/index.html HTTP/1.1" 304 -
0:0:0:0:0:0:0:1 - - [02/Apr/2024:17:55:12 +0530] "GET /Demo/login.html HTTP/1.1" 304 -
