127.0.0.1 - - [10/Apr/2024:15:42:08 +0530] "GET / HTTP/1.1" 404 751
0:0:0:0:0:0:0:1 - - [10/Apr/2024:15:42:09 +0530] "GET /Demo/index.html HTTP/1.1" 200 878
0:0:0:0:0:0:0:1 - - [10/Apr/2024:15:42:09 +0530] "GET /favicon.ico HTTP/1.1" 404 762
0:0:0:0:0:0:0:1 - - [10/Apr/2024:15:42:43 +0530] "POST /Demo/SaveServlet HTTP/1.1" 200 878
127.0.0.1 - - [10/Apr/2024:15:44:15 +0530] "GET / HTTP/1.1" 404 751
0:0:0:0:0:0:0:1 - - [10/Apr/2024:15:44:15 +0530] "GET /Demo/index.html HTTP/1.1" 304 -
0:0:0:0:0:0:0:1 - - [10/Apr/2024:15:44:50 +0530] "POST /Demo/SaveServlet HTTP/1.1" 200 878
127.0.0.1 - - [10/Apr/2024:15:49:06 +0530] "GET / HTTP/1.1" 404 751
0:0:0:0:0:0:0:1 - - [10/Apr/2024:15:49:07 +0530] "GET /Demo/index.html HTTP/1.1" 200 874
0:0:0:0:0:0:0:1 - - [10/Apr/2024:15:49:34 +0530] "POST /Demo/SaveServlet HTTP/1.1" 200 874
127.0.0.1 - - [10/Apr/2024:15:51:14 +0530] "GET / HTTP/1.1" 404 751
0:0:0:0:0:0:0:1 - - [10/Apr/2024:15:51:15 +0530] "GET /Demo/index.html HTTP/1.1" 304 -
0:0:0:0:0:0:0:1 - - [10/Apr/2024:15:51:49 +0530] "POST /Demo/SaveServlet HTTP/1.1" 200 874
0:0:0:0:0:0:0:1 - - [10/Apr/2024:15:52:18 +0530] "GET /Demo/SaveServlet HTTP/1.1" 405 751
0:0:0:0:0:0:0:1 - - [10/Apr/2024:15:52:22 +0530] "GET /Demo/index.html HTTP/1.1" 200 874
0:0:0:0:0:0:0:1 - - [10/Apr/2024:15:52:42 +0530] "GET /Demo/index.html HTTP/1.1" 304 -
0:0:0:0:0:0:0:1 - - [10/Apr/2024:15:53:11 +0530] "POST /Demo/SaveServlet HTTP/1.1" 200 518
0:0:0:0:0:0:0:1 - - [10/Apr/2024:15:55:17 +0530] "POST /Demo/LoginServlet HTTP/1.1" 200 23
127.0.0.1 - - [10/Apr/2024:16:08:12 +0530] "GET / HTTP/1.1" 404 751
0:0:0:0:0:0:0:1 - - [10/Apr/2024:16:08:12 +0530] "GET /Demo/login.html HTTP/1.1" 200 518
0:0:0:0:0:0:0:1 - - [10/Apr/2024:16:08:24 +0530] "POST /Demo/LoginServlet HTTP/1.1" 200 241
