127.0.0.1 - - [09/Jan/2024:10:11:29 +0530] "GET / HTTP/1.1" 404 751
0:0:0:0:0:0:0:1 - - [09/Jan/2024:10:11:30 +0530] "GET /EmpWebApp/Login.html HTTP/1.1" 304 -
0:0:0:0:0:0:0:1 - - [09/Jan/2024:10:11:30 +0530] "GET /favicon.ico HTTP/1.1" 404 762
0:0:0:0:0:0:0:1 - - [09/Jan/2024:10:11:39 +0530] "POST /EmpWebApp/LoginServlet HTTP/1.1" 200 663
0:0:0:0:0:0:0:1 - - [09/Jan/2024:10:11:44 +0530] "GET /EmpWebApp/GetAllEmps HTTP/1.1" 200 1728
0:0:0:0:0:0:0:1 - - [09/Jan/2024:10:11:46 +0530] "GET /EmpWebApp/GetEmpById.jsp HTTP/1.1" 200 1241
0:0:0:0:0:0:0:1 - - [09/Jan/2024:10:11:48 +0530] "GET /EmpWebApp/GetEmpById.jsp HTTP/1.1" 200 1241
0:0:0:0:0:0:0:1 - - [09/Jan/2024:10:11:50 +0530] "GET /EmpWebApp/GetEmpById.jsp HTTP/1.1" 200 1241
0:0:0:0:0:0:0:1 - - [09/Jan/2024:10:14:20 +0530] "GET /EmpWebApp/GetEmpById.jsp HTTP/1.1" 200 1241
0:0:0:0:0:0:0:1 - - [09/Jan/2024:10:14:56 +0530] "POST /EmpWebApp/LoginServlet HTTP/1.1" 200 589
0:0:0:0:0:0:0:1 - - [09/Jan/2024:10:14:59 +0530] "GET /EmpWebApp/Profile.jsp HTTP/1.1" 200 1251
0:0:0:0:0:0:0:1 - - [09/Jan/2024:10:23:47 +0530] "POST /EmpWebApp/LoginServlet HTTP/1.1" 200 663
0:0:0:0:0:0:0:1 - - [09/Jan/2024:10:23:48 +0530] "GET /EmpWebApp/GetAllEmps HTTP/1.1" 200 1728
0:0:0:0:0:0:0:1 - - [09/Jan/2024:10:23:51 +0530] "GET /EmpWebApp/GetAllEmps HTTP/1.1" 200 1728
0:0:0:0:0:0:0:1 - - [09/Jan/2024:10:23:53 +0530] "GET /EmpWebApp/HRHomePage.jsp HTTP/1.1" 200 663
0:0:0:0:0:0:0:1 - - [09/Jan/2024:10:23:55 +0530] "GET /EmpWebApp/GetEmpById.jsp HTTP/1.1" 200 1277
0:0:0:0:0:0:0:1 - - [09/Jan/2024:10:24:02 +0530] "GET /EmpWebApp/HRHomePage.jsp HTTP/1.1" 200 663
0:0:0:0:0:0:0:1 - - [09/Jan/2024:10:24:04 +0530] "GET /EmpWebApp/GetEmpById.jsp HTTP/1.1" 200 1277
0:0:0:0:0:0:0:1 - - [09/Jan/2024:10:29:32 +0530] "POST /EmpWebApp/LoginServlet HTTP/1.1" 200 663
0:0:0:0:0:0:0:1 - - [09/Jan/2024:10:29:34 +0530] "GET /EmpWebApp/GetEmpById.jsp HTTP/1.1" 200 1196
0:0:0:0:0:0:0:1 - - [09/Jan/2024:10:29:40 +0530] "POST /EmpWebApp/GetEmpById HTTP/1.1" 200 1263
0:0:0:0:0:0:0:1 - - [09/Jan/2024:10:34:20 +0530] "GET /EmpWebApp/Login.html HTTP/1.1" 304 -
0:0:0:0:0:0:0:1 - - [09/Jan/2024:10:34:28 +0530] "POST /EmpWebApp/LoginServlet HTTP/1.1" 200 663
0:0:0:0:0:0:0:1 - - [09/Jan/2024:10:34:32 +0530] "GET /EmpWebApp/GetEmpById.jsp HTTP/1.1" 200 1279
0:0:0:0:0:0:0:1 - - [09/Jan/2024:10:34:34 +0530] "GET /EmpWebApp/GetAllEmps HTTP/1.1" 200 1728
0:0:0:0:0:0:0:1 - - [09/Jan/2024:10:34:36 +0530] "GET /EmpWebApp/GetEmpById.jsp HTTP/1.1" 200 1279
0:0:0:0:0:0:0:1 - - [09/Jan/2024:10:35:01 +0530] "GET /EmpWebApp/HRHomePage.jsp HTTP/1.1" 200 663
0:0:0:0:0:0:0:1 - - [09/Jan/2024:10:36:04 +0530] "POST /EmpWebApp/LoginServlet HTTP/1.1" 200 663
0:0:0:0:0:0:0:1 - - [09/Jan/2024:10:36:06 +0530] "GET /EmpWebApp/GetEmpById.jsp HTTP/1.1" 200 1196
0:0:0:0:0:0:0:1 - - [09/Jan/2024:10:36:11 +0530] "POST /EmpWebApp/GetEmpById HTTP/1.1" 200 1261
127.0.0.1 - - [09/Jan/2024:10:43:45 +0530] "GET / HTTP/1.1" 404 751
0:0:0:0:0:0:0:1 - - [09/Jan/2024:10:43:55 +0530] "POST /EmpWebApp/LoginServlet HTTP/1.1" 200 663
0:0:0:0:0:0:0:1 - - [09/Jan/2024:10:43:59 +0530] "GET /EmpWebApp/GetAllEmps HTTP/1.1" 200 2006
0:0:0:0:0:0:0:1 - - [09/Jan/2024:10:44:05 +0530] "GET /EmpWebApp/Delete?empId=103 HTTP/1.1" 200 1799
0:0:0:0:0:0:0:1 - - [09/Jan/2024:10:44:08 +0530] "GET /EmpWebApp/Delete?empId=103 HTTP/1.1" 200 757
0:0:0:0:0:0:0:1 - - [09/Jan/2024:10:44:14 +0530] "GET /EmpWebApp/GetAllEmps HTTP/1.1" 200 1799
0:0:0:0:0:0:0:1 - - [09/Jan/2024:10:44:59 +0530] "GET /EmpWebApp/GetEmpById.jsp HTTP/1.1" 200 1243
0:0:0:0:0:0:0:1 - - [09/Jan/2024:10:49:15 +0530] "POST /EmpWebApp/LoginServlet HTTP/1.1" 200 663
0:0:0:0:0:0:0:1 - - [09/Jan/2024:10:49:17 +0530] "GET /EmpWebApp/GetEmpById.jsp HTTP/1.1" 200 1243
0:0:0:0:0:0:0:1 - - [09/Jan/2024:10:51:16 +0530] "GET /EmpWebApp/GetEmpById.jsp HTTP/1.1" 200 1243
127.0.0.1 - - [09/Jan/2024:10:55:25 +0530] "GET / HTTP/1.1" 404 751
0:0:0:0:0:0:0:1 - - [09/Jan/2024:10:55:37 +0530] "POST /EmpWebApp/LoginServlet HTTP/1.1" 200 663
0:0:0:0:0:0:0:1 - - [09/Jan/2024:10:55:40 +0530] "GET /EmpWebApp/GetEmpById.jsp HTTP/1.1" 200 1241
0:0:0:0:0:0:0:1 - - [09/Jan/2024:10:56:40 +0530] "POST /EmpWebApp/LoginServlet HTTP/1.1" 200 663
0:0:0:0:0:0:0:1 - - [09/Jan/2024:10:56:42 +0530] "GET /EmpWebApp/GetEmpById.jsp HTTP/1.1" 200 1198
0:0:0:0:0:0:0:1 - - [09/Jan/2024:10:56:48 +0530] "POST /EmpWebApp/GetEmpById HTTP/1.1" 200 1275
127.0.0.1 - - [09/Jan/2024:11:16:18 +0530] "GET / HTTP/1.1" 404 751
0:0:0:0:0:0:0:1 - - [09/Jan/2024:11:16:26 +0530] "POST /EmpWebApp/LoginServlet HTTP/1.1" 200 663
0:0:0:0:0:0:0:1 - - [09/Jan/2024:11:16:30 +0530] "GET /EmpWebApp/GetAllEmps HTTP/1.1" 200 1912
0:0:0:0:0:0:0:1 - - [09/Jan/2024:11:16:33 +0530] "GET /EmpWebApp/EditEmployee?empId=101 HTTP/1.1" 200 1957
0:0:0:0:0:0:0:1 - - [09/Jan/2024:11:16:42 +0530] "POST /EmpWebApp/UpdateEmployee HTTP/1.1" 200 1917
